{
    "$schema": "http://json-schema.org/draft-07/schema#",
    "description": "configuration for workflow",
    "required": [
        "reference",
        "samples",
        "outbase"
    ],
    "properties": {
        "reference": {
            "type": "string",
            "description": "transcriptome reference sequences as fasta"
        },
        "samples": {
            "type": "object",
            "minProperties": 1,
            "patternProperties": {
                ".*": {
                    "type": "object",
                    "properties": {
                        "r1": {"type": "string"},
                        "r2": {"type": "string"},
                        "long": {"type": "string"},
                        "sra_short": {"type":"string"},
                        "single": {"type": "string"}
                    },
                    "required": []
                }
            },
            "description": "dictionary/object mapping sample_names to reads {s1: {r1:'r1', r2:'r2'}}"
        },
        "outbase": {
            "type": "string",
            "description": "a prefix for output files"
        },
        "best_filter": {
            "type": "boolean",
            "default": false,
            "description": "whether or not to filter mappings to only the 'best' hit(s)"
        },
        "opts": {
            "type": "object",
            "default": {},
            "properties": {
                "index": {
                    "type": "string",
                    "default": ""
                },
                "quant": {
                    "type": "string",
                    "default": "-l A"
                },
                "mm2": {
                    "default": "",
                    "type": "string"
                }
            }
        }
    }
}