{
    "reference": "salmon/Gmax.Williams82.HPIv02.cds.fasta",
    "samples": {
        "Gmax_Wm82_MU_leaf_ctrl": {
            "long": "Gmax_Wm82_MU.pb_ISO.R000-735.L004-023.hifi.fastq.gz"
        },
        "Gmax_Wm82_MU_stem_ctrl": {
            "long": "Gmax_Wm82_MU.pb_ISO.R000-735.L004-024.hifi.fastq.gz"
        },
        "Gmax_Wm82_MU_root_ctrl": {
            "long": "Gmax_Wm82_MU.pb_ISO.R000-740.L004-419.segmented.hifi.fastq.gz"
        },
        "Gmax_Wm82_MU_heat_6h_leaf": {
            "long": "Gmax_Wm82_MU.pb_ISO.R000-740.L004-420.segmented.hifi.fastq.gz"
        },
        "Gmax_Wm82_MU_heat_6h_stem": {
            "long": "Gmax_Wm82_MU.pb_ISO.R000-740.L004-421.segmented.hifi.fastq.gz"
        },
        "Gmax_Wm82_MU_heat_6h_root": {
            "long": "Gmax_Wm82_MU.pb_ISO.R000-740.L004-422.segmented.hifi.fastq.gz"
        },
        "Gmax_Wm82_MU_waterlogged_24h_leaf": {
            "long": "Gmax_Wm82_MU.pb_ISO.R000-740.L004-423.segmented.hifi.fastq.gz"
        },
        "Gmax_Wm82_MU_waterlogged_24h_stem": {
            "long": "Gmax_Wm82_MU.pb_ISO.R000-740.L004-424.segmented.hifi.fastq.gz"
        },
        "Gmax_Wm82_MU_waterlogged_24h_root": {
            "long": "Gmax_Wm82_MU.pb_ISO.R000-740.L004-425.segmented.hifi.fastq.gz"
        },
        "Gmax_Wm82_MU_drought_leaf": {
            "long": "Gmax_Wm82_MU.pb_ISO.R000-740.L004-426.segmented.hifi.fastq.gz"
        }
    },
    "outbase": "salmon/Gmax.Williams82.HPIv02.cds.v1.salmon/Gmax.Williams82.HPIv02.cds.v1.salmon"
}