{
    "samples": {
        "Zmar1102_1A_L": {
            "r1": "Zmar1102_1A.ILL_cDNA.R000-737.L004-049.R1.fastq.gz",
            "r2": "Zmar1102_1A.ILL_cDNA.R000-737.L004-049.R2.fastq.gz"},
        "Zmar1102_1A_R": {
            "r1": "Zmar1102_1A.ILL_cDNA.R000-737.L004-055.R1.fastq.gz",
            "r2": "Zmar1102_1A.ILL_cDNA.R000-737.L004-055.R2.fastq.gz"},
        "Zmar1102_1B_L": {
            "r1": "Zmar1102_1B.ILL_cDNA.R000-737.L004-050.R1.fastq.gz",
            "r2": "Zmar1102_1B.ILL_cDNA.R000-737.L004-050.R2.fastq.gz"},
        "Zmar1102_1B_R": {
            "r1": "Zmar1102_1B.ILL_cDNA.R000-737.L004-056.R1.fastq.gz",
            "r2": "Zmar1102_1B.ILL_cDNA.R000-737.L004-056.R2.fastq.gz"},
        "Zmar1102_1C_L": {
            "r1": "Zmar1102_1C.ILL_cDNA.R000-737.L004-051.R1.fastq.gz",
            "r2": "Zmar1102_1C.ILL_cDNA.R000-737.L004-051.R2.fastq.gz"},
        "Zmar1102_1C_R": {
            "r1": "Zmar1102_1C.ILL_cDNA.R000-737.L004-057.R1.fastq.gz",
            "r2": "Zmar1102_1C.ILL_cDNA.R000-737.L004-057.R2.fastq.gz"},
        "ZmarH1102_1A_L": {
            "r1": "ZmarH1102_1A.ILL_cDNA.R000-737.L004-052.R1.fastq.gz",
            "r2": "ZmarH1102_1A.ILL_cDNA.R000-737.L004-052.R2.fastq.gz"},
        "ZmarH1102_1A_R": {
            "r1": "ZmarH1102_1A.ILL_cDNA.R000-737.L004-058.R1.fastq.gz",
            "r2": "ZmarH1102_1A.ILL_cDNA.R000-737.L004-058.R2.fastq.gz"},
        "ZmarH1102_1B_L": {
            "r1": "ZmarH1102_1B.ILL_cDNA.R000-737.L004-053.R1.fastq.gz",
            "r2": "ZmarH1102_1B.ILL_cDNA.R000-737.L004-053.R2.fastq.gz"},
        "ZmarH1102_1B_R": {
            "r1": "ZmarH1102_1B.ILL_cDNA.R000-737.L004-059.R1.fastq.gz",
            "r2": "ZmarH1102_1B.ILL_cDNA.R000-737.L004-059.R2.fastq.gz"},
        "ZmarH1102_1C_L": {
            "r1": "ZmarH1102_1C.ILL_cDNA.R000-737.L004-054.R1.fastq.gz",
            "r2": "ZmarH1102_1C.ILL_cDNA.R000-737.L004-054.R2.fastq.gz"},
        "ZmarH1102_1C_R": {
            "r1": "ZmarH1102_1C.ILL_cDNA.R000-737.L004-060.R1.fastq.gz",
            "r2": "ZmarH1102_1C.ILL_cDNA.R000-737.L004-060.R2.fastq.gz"},

        "Zmar1102_2A_L": {
            "r1": "Zmar1102_2A.ILL_cDNA.R000-784.L005-104.R1.fastq.gz",
            "r2": "Zmar1102_2A.ILL_cDNA.R000-784.L005-104.R2.fastq.gz"},
        "Zmar1102_2A_R": {
            "r1": "Zmar1102_2A.ILL_cDNA.R000-784.L005-110.R1.fastq.gz",
            "r2": "Zmar1102_2A.ILL_cDNA.R000-784.L005-110.R2.fastq.gz"},
        "Zmar1102_2B_L": {
            "r1": "Zmar1102_2B.ILL_cDNA.R000-784.L005-105.R1.fastq.gz",
            "r2": "Zmar1102_2B.ILL_cDNA.R000-784.L005-105.R2.fastq.gz"},
        "Zmar1102_2B_R": {
            "r1": "Zmar1102_2B.ILL_cDNA.R000-784.L005-111.R1.fastq.gz",
            "r2": "Zmar1102_2B.ILL_cDNA.R000-784.L005-111.R2.fastq.gz"},
        "Zmar1102_2C_L": {
            "r1": "Zmar1102_2C.ILL_cDNA.R000-784.L005-106.R1.fastq.gz",
            "r2": "Zmar1102_2C.ILL_cDNA.R000-784.L005-106.R2.fastq.gz"},
        "Zmar1102_2C_R": {
            "r1": "Zmar1102_2C.ILL_cDNA.R000-784.L005-136.R1.fastq.gz",
            "r2": "Zmar1102_2C.ILL_cDNA.R000-784.L005-136.R2.fastq.gz"},
        "ZmarH1102_2A_L": {
            "r1": "ZmarH1102_2A.ILL_cDNA.R000-784.L005-107.R1.fastq.gz",
            "r2": "ZmarH1102_2A.ILL_cDNA.R000-784.L005-107.R2.fastq.gz"},
        "ZmarH1102_2A_R": {
            "r1": "ZmarH1102_2A.ILL_cDNA.R000-784.L005-137.R1.fastq.gz",
            "r2": "ZmarH1102_2A.ILL_cDNA.R000-784.L005-137.R2.fastq.gz"},
        "ZmarH1102_2B_L": {
            "r1": "ZmarH1102_2B.ILL_cDNA.R000-784.L005-108.R1.fastq.gz",
            "r2": "ZmarH1102_2B.ILL_cDNA.R000-784.L005-108.R2.fastq.gz"},
        "ZmarH1102_2B_R": {
            "r1": "ZmarH1102_2B.ILL_cDNA.R000-784.L005-138.R1.fastq.gz",
            "r2": "ZmarH1102_2B.ILL_cDNA.R000-784.L005-138.R2.fastq.gz"},
        "ZmarH1102_2C_L": {
            "r1": "ZmarH1102_2C.ILL_cDNA.R000-784.L005-109.R1.fastq.gz",
            "r2": "ZmarH1102_2C.ILL_cDNA.R000-784.L005-109.R2.fastq.gz"},
        "ZmarH1102_2C_R": {
            "r1": "ZmarH1102_2C.ILL_cDNA.R000-784.L005-139.R1.fastq.gz",
            "r2": "ZmarH1102_2C.ILL_cDNA.R000-784.L005-139.R2.fastq.gz"},

        "Zmar1102_3A_L": {
            "r1": "Zmar1102_3A.ILL_cDNA.R000-784.L005-112.R1.fastq.gz",
            "r2": "Zmar1102_3A.ILL_cDNA.R000-784.L005-112.R2.fastq.gz"},
        "Zmar1102_3A_R": {
            "r1": "Zmar1102_3A.ILL_cDNA.R000-784.L005-124.R1.fastq.gz",
            "r2": "Zmar1102_3A.ILL_cDNA.R000-784.L005-124.R2.fastq.gz"},
        "Zmar1102_3B_L": {
            "r1": "Zmar1102_3B.ILL_cDNA.R000-784.L005-113.R1.fastq.gz",
            "r2": "Zmar1102_3B.ILL_cDNA.R000-784.L005-113.R2.fastq.gz"},
        "Zmar1102_3A_R2": {
            "r1": "Zmar1102_3A.ILL_cDNA.R000-784.L005-171.R1.fastq.gz",
            "r2": "Zmar1102_3A.ILL_cDNA.R000-784.L005-171.R2.fastq.gz"},
        "Zmar1102_3C_L": {
            "r1": "Zmar1102_3C.ILL_cDNA.R000-784.L005-114.R1.fastq.gz",
            "r2": "Zmar1102_3C.ILL_cDNA.R000-784.L005-114.R2.fastq.gz"},
        "ZmarH1102_3A_L": {
            "r1": "ZmarH1102_3A.ILL_cDNA.R000-784.L005-115.R1.fastq.gz",
            "r2": "ZmarH1102_3A.ILL_cDNA.R000-784.L005-115.R2.fastq.gz"},
        "ZmarH1102_3A_R": {
            "r1": "ZmarH1102_3A.ILL_cDNA.R000-784.L005-127.R1.fastq.gz",
            "r2": "ZmarH1102_3A.ILL_cDNA.R000-784.L005-127.R2.fastq.gz"},
        "ZmarH1102_3B_L": {
            "r1": "ZmarH1102_3B.ILL_cDNA.R000-784.L005-116.R1.fastq.gz",
            "r2": "ZmarH1102_3B.ILL_cDNA.R000-784.L005-116.R2.fastq.gz"},
        "ZmarH1102_3B_R": {
            "r1": "ZmarH1102_3B.ILL_cDNA.R000-784.L005-128.R1.fastq.gz",
            "r2": "ZmarH1102_3B.ILL_cDNA.R000-784.L005-128.R2.fastq.gz"},
        "ZmarH1102_3C_L": {
            "r1": "ZmarH1102_3C.ILL_cDNA.R000-784.L005-117.R1.fastq.gz",
            "r2": "ZmarH1102_3C.ILL_cDNA.R000-784.L005-117.R2.fastq.gz"},
        "ZmarH1102_3C_R": {
            "r1": "ZmarH1102_3C.ILL_cDNA.R000-784.L005-129.R1.fastq.gz",
            "r2": "ZmarH1102_3C.ILL_cDNA.R000-784.L005-129.R2.fastq.gz"},            

        "Zmar1102_4A_L": {
            "r1": "Zmar1102_4A.ILL_cDNA.R000-784.L005-118.R1.fastq.gz",
            "r2": "Zmar1102_4A.ILL_cDNA.R000-784.L005-118.R2.fastq.gz"},
        "Zmar1102_4A_R": {
            "r1": "Zmar1102_4A.ILL_cDNA.R000-784.L005-130.R1.fastq.gz",
            "r2": "Zmar1102_4A.ILL_cDNA.R000-784.L005-130.R2.fastq.gz"},
        "Zmar1102_4B_L": {
            "r1": "Zmar1102_4B.ILL_cDNA.R000-784.L005-119.R1.fastq.gz",
            "r2": "Zmar1102_4B.ILL_cDNA.R000-784.L005-119.R2.fastq.gz"},
        "Zmar1102_4B_R": {
            "r1": "Zmar1102_4B.ILL_cDNA.R000-784.L005-131.R1.fastq.gz",
            "r2": "Zmar1102_4B.ILL_cDNA.R000-784.L005-131.R2.fastq.gz"},
        "Zmar1102_4C_L": {
            "r1": "Zmar1102_4C.ILL_cDNA.R000-784.L005-120.R1.fastq.gz",
            "r2": "Zmar1102_4C.ILL_cDNA.R000-784.L005-120.R2.fastq.gz"},
        "Zmar1102_4C_R": {
            "r1": "Zmar1102_4C.ILL_cDNA.R000-784.L005-132.R1.fastq.gz",
            "r2": "Zmar1102_4C.ILL_cDNA.R000-784.L005-132.R2.fastq.gz"},           
        "ZmarH1102_4A_L": {
            "r1": "ZmarH1102_4A.ILL_cDNA.R000-784.L005-121.R1.fastq.gz",
            "r2": "ZmarH1102_4A.ILL_cDNA.R000-784.L005-121.R2.fastq.gz"},
        "ZmarH1102_4A_R": {
            "r1": "ZmarH1102_4A.ILL_cDNA.R000-784.L005-133.R1.fastq.gz",
            "r2": "ZmarH1102_4A.ILL_cDNA.R000-784.L005-133.R2.fastq.gz"},
        "ZmarH1102_4B_L": {
            "r1": "ZmarH1102_4B.ILL_cDNA.R000-784.L005-122.R1.fastq.gz",
            "r2": "ZmarH1102_4B.ILL_cDNA.R000-784.L005-122.R2.fastq.gz"},
        "ZmarH1102_4B_R": {
            "r1": "ZmarH1102_4B.ILL_cDNA.R000-784.L005-134.R1.fastq.gz",
            "r2": "ZmarH1102_4B.ILL_cDNA.R000-784.L005-134.R2.fastq.gz"},
        "ZmarH1102_4C_L": {
            "r1": "ZmarH1102_4C.ILL_cDNA.R000-784.L005-123.R1.fastq.gz",
            "r2": "ZmarH1102_4C.ILL_cDNA.R000-784.L005-123.R2.fastq.gz"},
        "ZmarH1102_4C_R": {
            "r1": "ZmarH1102_4C.ILL_cDNA.R000-784.L005-135.R1.fastq.gz",
            "r2": "ZmarH1102_4C.ILL_cDNA.R000-784.L005-135.R2.fastq.gz"}
    },
    "reference": "Zmarina913.a02.helixer_land_plant.mrna.fasta",
    "outbase": "tank_total_Zmar912_hapmerged_salmon_v3marina"
}


















